Classificação via pacote tidymodels
…
Selecionando apenas um país para modelagem.

hotels |>
    count(country) |> 
  mutate(prop = n/sum(n)) |>
  arrange(desc(n))

# A tibble: 155 × 3
   country     n   prop
   <fct>   <int>  <dbl>
 1 PRT     14046 0.281 
 2 GBR      6405 0.128 
 3 FRA      5627 0.113 
 4 ESP      4298 0.0860
 5 DEU      4047 0.0809
 6 IRL      1691 0.0338
 7 ITA      1607 0.0321
 8 BEL      1250 0.025 
 9 NLD      1123 0.0225
10 USA      1059 0.0212
# ℹ 145 more rows
…
→ B | warning: glm.fit: algorithm did not converge, glm.fit: fitted probabilities numerically 0 or 1 occurred, the glm algorithm did not converge for response "no"

There were issues with some computations   A: x18
There were issues with some computations   A: x20   B: x1
There were issues with some computations   A: x21   B: x1
There were issues with some computations   A: x26   B: x1
There were issues with some computations   A: x27   B: x1

Extraindo métricas para avaliar os resultados da validação cruzada.

collect_metrics(race_results) |> 
  filter(.metric == "accuracy") |>
  arrange(mean)

# A tibble: 43 × 9
   wflow_id       .config   preproc model .metric .estimator  mean     n std_err
   <chr>          <chr>     <chr>   <chr> <chr>   <chr>      <dbl> <int>   <dbl>
 1 neural_network Preproce… recipe  mlp   accura… binary     0.853    20 0.0104 
 2 tree           Preproce… recipe  deci… accura… binary     0.862    20 0.00894
 3 neural_network Preproce… recipe  mlp   accura… binary     0.864    20 0.00970
 4 tree           Preproce… recipe  deci… accura… binary     0.870    20 0.00632
 5 SVM_radial     Preproce… recipe  svm_… accura… binary     0.874    20 0.00724
 6 SVM_radial     Preproce… recipe  svm_… accura… binary     0.874    20 0.00724
 7 SVM_radial     Preproce… recipe  svm_… accura… binary     0.874    20 0.00724
 8 SVM_radial     Preproce… recipe  svm_… accura… binary     0.874    20 0.00724
 9 SVM_radial     Preproce… recipe  svm_… accura… binary     0.874    20 0.00724
10 SVM_radial     Preproce… recipe  svm_… accura… binary     0.874    20 0.00724
# ℹ 33 more rows

collect_metrics(race_results) |> 
  filter(.metric == "roc_auc") |>
  arrange(desc(mean))

# A tibble: 43 × 9
   wflow_id .config         preproc model .metric .estimator  mean     n std_err
   <chr>    <chr>           <chr>   <chr> <chr>   <chr>      <dbl> <int>   <dbl>
 1 rforest  Preprocessor1_… recipe  rand… roc_auc binary     0.851    20  0.0146
 2 rforest  Preprocessor1_… recipe  rand… roc_auc binary     0.851    20  0.0151
 3 rforest  Preprocessor1_… recipe  rand… roc_auc binary     0.850    20  0.0152
 4 XGB      Preprocessor1_… recipe  boos… roc_auc binary     0.837    20  0.0150
 5 bagging  Preprocessor1_… recipe  bag_… roc_auc binary     0.836    20  0.0138
 6 bagging  Preprocessor1_… recipe  bag_… roc_auc binary     0.836    20  0.0142
 7 bagging  Preprocessor1_… recipe  bag_… roc_auc binary     0.835    20  0.0169
 8 bagging  Preprocessor1_… recipe  bag_… roc_auc binary     0.828    20  0.0162
 9 bagging  Preprocessor1_… recipe  bag_… roc_auc binary     0.822    20  0.0203
10 MARS     Preprocessor1_… recipe  mars  roc_auc binary     0.813    20  0.0169
# ℹ 33 more rows
…
